%YAML 1.1
%TAG !u! tag:unity3d.com,2011:
--- !u!114 &11400000
MonoBehaviour:
  m_ObjectHideFlags: 0
  m_PrefabParentObject: {fileID: 0}
  m_PrefabInternal: {fileID: 0}
  m_GameObject: {fileID: 0}
  m_Enabled: 1
  m_EditorHideFlags: 0
  m_Script: {fileID: 11500000, guid: c74a9935504eede418880b3293be66b5, type: 3}
  m_Name: CharacterLevelDatabase
  m_EditorClassIdentifier: 
  database:
  - ID_Character: 0
    CharacterLevelDatas:
    - Level: 1
      Class: 0
      SkillUltimateOffensive:
        IdSkill: OF-01
        Name: Arc Slash
        Description: Dash forward and slash a row of enemies in a wide range (-100AP)
        CommandValue: 75088311
        SkillType: 2
        BuffPercentage: 0
        Target: 1
        SkillBaseLevel: 1
        DamagePercentage: 150
        Element: 0
        DamageType: 0
        Cost: 100
        BuffsChance: []
      PassiveGuardSkill:
        IdSkill: GB-01
        Name: Finn Guard
        Description: 
        CommandValue: 67580979
        SkillType: 4
        BuffPercentage: 100
        Target: 0
        SkillBaseLevel: 1
        Buffs:
        - _ID: 62
          _MetaId: 62
          Name: Finn Guard I
          Type: 3
          EventType: 1
          Description: 
          Turns: 1
          value: 40
          BuffPrimary: []
          BuffSecondary: []
          ActionsBuffEnum: 
          StatusBuff: 4
          StatusType: 0
          Stackable: 0
          BuffInflictID: 0
        TargetFormations: 3
      GaugeDatas:
      - Type: 3
        Value: 7
      - Type: 1
        Value: 3
      - Type: 2
        Value: 5
      - Type: 3
        Value: 2
      - Type: 4
        Value: 3
      - Type: 5
        Value: 5
      - Type: 6
        Value: 5
  - ID_Character: 1
    CharacterLevelDatas:
    - Level: 3
      Class: 8
      SkillUltimateOffensive:
        IdSkill: 
        Name: None
        Description: 
        CommandValue: 0
        SkillType: 2
        BuffPercentage: 0
        Target: 0
        SkillBaseLevel: 1
        DamagePercentage: 0
        Element: 2
        DamageType: 0
        Cost: 10000
        BuffsChance: []
      PassiveGuardSkill:
        IdSkill: GB-03
        Name: Eris Guard
        Description: 
        CommandValue: 67580981
        SkillType: 4
        BuffPercentage: 100
        Target: 4
        SkillBaseLevel: 1
        Buffs:
        - _ID: 64
          _MetaId: 64
          Name: Eris Guard
          Type: 10
          EventType: 6
          Description: Heal Ally
          Turns: 1
          value: 10
          BuffPrimary: []
          BuffSecondary: []
          ActionsBuffEnum: 
          StatusBuff: 0
          StatusType: 0
          Stackable: 0
          BuffInflictID: 0
        TargetFormations: 0
      GaugeDatas:
      - Type: 0
        Value: 5
      - Type: 1
        Value: 3
      - Type: 2
        Value: 5
      - Type: 3
        Value: 5
      - Type: 4
        Value: 5
      - Type: 5
        Value: 8
      - Type: 6
        Value: 10
  - ID_Character: 2
    CharacterLevelDatas:
    - Level: 1
      Class: 6
      SkillUltimateOffensive:
        IdSkill: DEF-01
        Name: Healing Light
        Description: Test Skill Eris
        CommandValue: 2012635369
        SkillType: 3
        BuffPercentage: 100
        Target: 4
        SkillBaseLevel: 1
        DamagePercentage: 0
        Element: 2
        DamageType: 0
        Cost: 100
        BuffsChance:
        - Chance: 100
          BuffEffect:
            _ID: 73
            _MetaId: 73
            Name: Healing Light
            Type: 10
            EventType: 6
            Description: 
            Turns: 1
            value: 50
            BuffPrimary: []
            BuffSecondary: []
            ActionsBuffEnum: 
            StatusBuff: 0
            StatusType: 0
            Stackable: 0
            BuffInflictID: 0
      PassiveGuardSkill:
        IdSkill: GB-03
        Name: Eris Guard
        Description: 
        CommandValue: 67580981
        SkillType: 4
        BuffPercentage: 100
        Target: 4
        SkillBaseLevel: 1
        Buffs:
        - _ID: 64
          _MetaId: 64
          Name: Eris Guard
          Type: 10
          EventType: 6
          Description: Heal Ally
          Turns: 1
          value: 10
          BuffPrimary: []
          BuffSecondary: []
          ActionsBuffEnum: 
          StatusBuff: 0
          StatusType: 0
          Stackable: 0
          BuffInflictID: 0
        TargetFormations: 0
      GaugeDatas:
      - Type: 0
        Value: 5
      - Type: 1
        Value: 6
      - Type: 2
        Value: 6
      - Type: 3
        Value: 6
      - Type: 4
        Value: 6
      - Type: 5
        Value: 6
      - Type: 6
        Value: 6
  - ID_Character: 3
    CharacterLevelDatas:
    - Level: 1
      Class: 3
      SkillUltimateOffensive:
        IdSkill: OF-03
        Name: Power Shot
        Description: Charge and shoot a powerful arrow  to an enemy (-100AP)
        CommandValue: 75088313
        SkillType: 2
        BuffPercentage: 0
        Target: 0
        SkillBaseLevel: 1
        DamagePercentage: 230
        Element: 1
        DamageType: 0
        Cost: 100
        BuffsChance: []
      PassiveGuardSkill:
        IdSkill: GB-04
        Name: Aria Guard
        Description: 
        CommandValue: 67580982
        SkillType: 4
        BuffPercentage: 100
        Target: 4
        SkillBaseLevel: 1
        Buffs:
        - _ID: 63
          _MetaId: 63
          Name: Aria Guard I
          Type: 13
          EventType: 1
          Description: Increase 5 point
          Turns: 1
          value: 5
          BuffPrimary: []
          BuffSecondary: []
          ActionsBuffEnum: 
          StatusBuff: 0
          StatusType: 0
          Stackable: 0
          BuffInflictID: 0
        TargetFormations: 0
      GaugeDatas:
      - Type: 0
        Value: 5
      - Type: 1
        Value: 1
      - Type: 2
        Value: 3
      - Type: 3
        Value: 7
      - Type: 4
        Value: 1
      - Type: 5
        Value: 3
      - Type: 6
        Value: 7
  - ID_Character: 4
    CharacterLevelDatas:
    - Level: 1
      Class: 9
      SkillUltimateOffensive:
        IdSkill: OF-04
        Name: Backstab
        Description: 
        CommandValue: 75088314
        SkillType: 2
        BuffPercentage: 0
        Target: 0
        SkillBaseLevel: 1
        DamagePercentage: 350
        Element: 2
        DamageType: 0
        Cost: 100
        BuffsChance: []
      PassiveGuardSkill:
        IdSkill: GB-05
        Name: Kael Guard
        Description: 
        CommandValue: 67580983
        SkillType: 4
        BuffPercentage: 0
        Target: 0
        SkillBaseLevel: 1
        Buffs: []
        TargetFormations: 3
      GaugeDatas:
      - Type: 3
        Value: 7
      - Type: 1
        Value: 0
      - Type: 2
        Value: 0
      - Type: 3
        Value: 0
      - Type: 4
        Value: 0
      - Type: 5
        Value: 0
      - Type: 6
        Value: 0
  - ID_Character: 5
    CharacterLevelDatas:
    - Level: 1
      Class: 12
      SkillUltimateOffensive:
        IdSkill: OF-05
        Name: Skull Bash
        Description: Bash Big hammer Witsh Massive Damage Effect
        CommandValue: 75088315
        SkillType: 2
        BuffPercentage: 0
        Target: 0
        SkillBaseLevel: 1
        DamagePercentage: 650
        Element: 3
        DamageType: 0
        Cost: 100
        BuffsChance: []
      PassiveGuardSkill:
        IdSkill: GE
        Name: Finn Reflects
        Description: 
        CommandValue: 2270
        SkillType: 4
        BuffPercentage: 100
        Target: 0
        SkillBaseLevel: 1
        Buffs:
        - _ID: 11
          _MetaId: 11
          Name: Reflect
          Type: 3
          EventType: 1
          Description: 
          Turns: 4
          value: 20
          BuffPrimary: []
          BuffSecondary: []
          ActionsBuffEnum: 
          StatusBuff: 4
          StatusType: 0
          Stackable: 0
          BuffInflictID: 0
        TargetFormations: 3
      GaugeDatas:
      - Type: 0
        Value: 8
      - Type: 1
        Value: 0
      - Type: 2
        Value: 0
      - Type: 3
        Value: 0
      - Type: 4
        Value: 0
      - Type: 5
        Value: 0
      - Type: 6
        Value: 0
  - ID_Character: 6
    CharacterLevelDatas:
    - Level: 1
      Class: 0
      SkillUltimateOffensive:
        IdSkill: OF-06
        Name: Dragons Bane
        Description: 
        CommandValue: 75088316
        SkillType: 2
        BuffPercentage: 0
        Target: 0
        SkillBaseLevel: 1
        DamagePercentage: 450
        Element: 5
        DamageType: 1
        Cost: 100
        BuffsChance: []
      PassiveGuardSkill:
        IdSkill: GB-03
        Name: Eris Guard
        Description: 
        CommandValue: 67580981
        SkillType: 4
        BuffPercentage: 100
        Target: 4
        SkillBaseLevel: 1
        Buffs:
        - _ID: 64
          _MetaId: 64
          Name: Eris Guard
          Type: 10
          EventType: 6
          Description: Heal Ally
          Turns: 1
          value: 10
          BuffPrimary: []
          BuffSecondary: []
          ActionsBuffEnum: 
          StatusBuff: 0
          StatusType: 0
          Stackable: 0
          BuffInflictID: 0
        TargetFormations: 0
      GaugeDatas:
      - Type: 0
        Value: 8
      - Type: 1
        Value: 8
      - Type: 2
        Value: 8
      - Type: 3
        Value: 8
      - Type: 4
        Value: 8
      - Type: 5
        Value: 8
      - Type: 6
        Value: 8
  _DatabaseID: CharacterLevel
