%YAML 1.1
%TAG !u! tag:unity3d.com,2011:
--- !u!114 &11400000
MonoBehaviour:
  m_ObjectHideFlags: 0
  m_PrefabParentObject: {fileID: 0}
  m_PrefabInternal: {fileID: 0}
  m_GameObject: {fileID: 0}
  m_Enabled: 1
  m_EditorHideFlags: 0
  m_Script: {fileID: 11500000, guid: aa115193913a08b40b1a90f772b15361, type: 3}
  m_Name: ConsumableHealingDatabase
  m_EditorClassIdentifier: 
  database:
  - _ID: IB-00
    ItemType: 2
    Usability: 0
    Name: Bloodstone Shard
    Icon: {fileID: 21300000, guid: a2407fd8e3b1cae459c0e99798afdcbd, type: 3}
    Description: Restore HP
    BuyPrice: 0
    SellPrice: 0
    Weight: 0
    RareType: 0
    ConsumableType: 0
    Target: 0
    ItemParticle: Battle/Battle Particles Resources/Stay/heal_LV1
    RestoredAttributes:
    - _ID: 0
      ItemID: IB-00
      _Attribute: 13
      Value: 15
    CuredStatuses: 
  - _ID: IB-01
    ItemType: 2
    Usability: 3
    Name: Bloodstone Shards
    Icon: {fileID: 21300000, guid: a2407fd8e3b1cae459c0e99798afdcbd, type: 3}
    Description: Restore HP 30% (Single)
    BuyPrice: 250
    SellPrice: 100
    Weight: 1
    RareType: 0
    ConsumableType: 0
    Target: 0
    ItemParticle: Battle/Battle Particles Resources/Stay/heal_LV1
    RestoredAttributes:
    - _ID: 0
      ItemID: IB-01
      _Attribute: 13
      Value: 30
    CuredStatuses: 
  - _ID: IB-02
    ItemType: 2
    Usability: 0
    Name: Bloodstone Stick
    Icon: {fileID: 21300000, guid: a2407fd8e3b1cae459c0e99798afdcbd, type: 3}
    Description: Restore HP 30% (Column)
    BuyPrice: 0
    SellPrice: 120
    Weight: 2
    RareType: 0
    ConsumableType: 0
    Target: 2
    ItemParticle: Battle/Battle Particles Resources/Stay/heal_LV1
    RestoredAttributes:
    - _ID: 0
      ItemID: IB-02
      _Attribute: 13
      Value: 30
    CuredStatuses: 
  - _ID: IB-03
    ItemType: 2
    Usability: 0
    Name: Bloodstone Pallete
    Icon: {fileID: 21300000, guid: a2407fd8e3b1cae459c0e99798afdcbd, type: 3}
    Description: Restore HP 30% (Row)
    BuyPrice: 0
    SellPrice: 120
    Weight: 2
    RareType: 0
    ConsumableType: 0
    Target: 1
    ItemParticle: Battle/Battle Particles Resources/Stay/heal_LV1
    RestoredAttributes:
    - _ID: 0
      ItemID: IB-03
      _Attribute: 13
      Value: 30
    CuredStatuses: 
  - _ID: IB-04
    ItemType: 2
    Usability: 0
    Name: Bloodstone Chunk
    Icon: {fileID: 21300000, guid: a2407fd8e3b1cae459c0e99798afdcbd, type: 3}
    Description: Restore HP 30% (All)
    BuyPrice: 0
    SellPrice: 130
    Weight: 3
    RareType: 0
    ConsumableType: 0
    Target: 4
    ItemParticle: Battle/Battle Particles Resources/Stay/heal_LV1
    RestoredAttributes:
    - _ID: 0
      ItemID: IB-04
      _Attribute: 13
      Value: 30
    CuredStatuses: 
  - _ID: IB-05
    ItemType: 2
    Usability: 0
    Name: Pure Bloodstone Shards
    Icon: {fileID: 21300000, guid: d25c73d4b755be947aa6dee719f5ce0c, type: 3}
    Description: Restore HP 50% (Single)
    BuyPrice: 500
    SellPrice: 200
    Weight: 1
    RareType: 0
    ConsumableType: 0
    Target: 0
    ItemParticle: Battle/Battle Particles Resources/Stay/heal_LV2
    RestoredAttributes:
    - _ID: 0
      ItemID: 
      _Attribute: 13
      Value: 50
    CuredStatuses: 
  - _ID: IB-06
    ItemType: 2
    Usability: 0
    Name: Pure Bloodstone Stick
    Icon: {fileID: 21300000, guid: d25c73d4b755be947aa6dee719f5ce0c, type: 3}
    Description: Restore HP 50% (Column)
    BuyPrice: 0
    SellPrice: 220
    Weight: 2
    RareType: 0
    ConsumableType: 0
    Target: 2
    ItemParticle: Battle/Battle Particles Resources/Stay/heal_LV2
    RestoredAttributes:
    - _ID: 0
      ItemID: 
      _Attribute: 13
      Value: 50
    CuredStatuses: 
  - _ID: IB-07
    ItemType: 2
    Usability: 0
    Name: Pure Bloodstone Pallete
    Icon: {fileID: 21300000, guid: d25c73d4b755be947aa6dee719f5ce0c, type: 3}
    Description: Restore HP 50% (Row)
    BuyPrice: 0
    SellPrice: 220
    Weight: 2
    RareType: 0
    ConsumableType: 0
    Target: 1
    ItemParticle: Battle/Battle Particles Resources/Stay/heal_LV2
    RestoredAttributes:
    - _ID: 0
      ItemID: 
      _Attribute: 13
      Value: 50
    CuredStatuses: 
  - _ID: IB-08
    ItemType: 2
    Usability: 0
    Name: Pure Bloodstone Chunk
    Icon: {fileID: 21300000, guid: d25c73d4b755be947aa6dee719f5ce0c, type: 3}
    Description: Restore HP 50% (All)
    BuyPrice: 0
    SellPrice: 230
    Weight: 3
    RareType: 0
    ConsumableType: 0
    Target: 4
    ItemParticle: Battle/Battle Particles Resources/Stay/heal_LV2
    RestoredAttributes:
    - _ID: 0
      ItemID: 
      _Attribute: 13
      Value: 50
    CuredStatuses: 
  - _ID: IB-09
    ItemType: 2
    Usability: 0
    Name: Ancient Bloodstone Shards
    Icon: {fileID: 21300000, guid: 35ad9f9c993d1194f84e3b09bfe972a8, type: 3}
    Description: Restore HP 100%
    BuyPrice: 1000
    SellPrice: 400
    Weight: 1
    RareType: 0
    ConsumableType: 0
    Target: 0
    ItemParticle: Battle/Battle Particles Resources/Stay/heal_LV2
    RestoredAttributes:
    - _ID: 0
      ItemID: 
      _Attribute: 13
      Value: 100
    CuredStatuses: 
  - _ID: IB-10
    ItemType: 2
    Usability: 0
    Name: Ancient Bloodstone Stick
    Icon: {fileID: 21300000, guid: 35ad9f9c993d1194f84e3b09bfe972a8, type: 3}
    Description: Restore HP 100%
    BuyPrice: 0
    SellPrice: 510
    Weight: 2
    RareType: 1
    ConsumableType: 0
    Target: 2
    ItemParticle: Battle/Battle Particles Resources/Stay/heal_LV3
    RestoredAttributes:
    - _ID: 0
      ItemID: 
      _Attribute: 13
      Value: 100
    CuredStatuses: 
  - _ID: IB-11
    ItemType: 2
    Usability: 0
    Name: Ancient Bloodstone Pallete
    Icon: {fileID: 21300000, guid: 35ad9f9c993d1194f84e3b09bfe972a8, type: 3}
    Description: Restore HP 100%
    BuyPrice: 0
    SellPrice: 510
    Weight: 2
    RareType: 1
    ConsumableType: 0
    Target: 1
    ItemParticle: Battle/Battle Particles Resources/Stay/heal_LV3
    RestoredAttributes:
    - _ID: 0
      ItemID: 
      _Attribute: 13
      Value: 100
    CuredStatuses: 
  - _ID: IB-12
    ItemType: 2
    Usability: 0
    Name: Ancient Bloodstone Chunk
    Icon: {fileID: 21300000, guid: 35ad9f9c993d1194f84e3b09bfe972a8, type: 3}
    Description: Restore HP 100%
    BuyPrice: 0
    SellPrice: 550
    Weight: 3
    RareType: 1
    ConsumableType: 0
    Target: 4
    ItemParticle: Battle/Battle Particles Resources/Stay/heal_LV3
    RestoredAttributes:
    - _ID: 0
      ItemID: 
      _Attribute: 13
      Value: 100
    CuredStatuses: 
  - _ID: IB-13
    ItemType: 2
    Usability: 0
    Name: Remedy Shards
    Icon: {fileID: 21300000, guid: 56e22e496644f104f93554c8c6614337, type: 3}
    Description: Medicine made with the extract of a plant that can clear status ailments
      for single target
    BuyPrice: 300
    SellPrice: 60
    Weight: 1
    RareType: 0
    ConsumableType: 0
    Target: 0
    ItemParticle: Battle/Battle Particles Resources/Stay/heal_LV1
    RestoredAttributes: []
    CuredStatuses: 0700000008000000090000000a0000000b0000000c0000000d000000
  - _ID: IB-14
    ItemType: 2
    Usability: 0
    Name: Remedy Stick
    Icon: {fileID: 21300000, guid: 56e22e496644f104f93554c8c6614337, type: 3}
    Description: Medicine made with the extract of a plant that can clear status ailments
      for column target
    BuyPrice: 0
    SellPrice: 80
    Weight: 2
    RareType: 0
    ConsumableType: 0
    Target: 2
    ItemParticle: Battle/Battle Particles Resources/Stay/heal_LV1
    RestoredAttributes: []
    CuredStatuses: 0700000008000000090000000a0000000b0000000c0000000d000000
  - _ID: IB-15
    ItemType: 2
    Usability: 0
    Name: Remedy Pallete
    Icon: {fileID: 21300000, guid: 56e22e496644f104f93554c8c6614337, type: 3}
    Description: Medicine made with the extract of a plant that can clear status ailments
      for row target
    BuyPrice: 0
    SellPrice: 80
    Weight: 2
    RareType: 0
    ConsumableType: 0
    Target: 1
    ItemParticle: Battle/Battle Particles Resources/Stay/heal_LV1
    RestoredAttributes: []
    CuredStatuses: 0700000008000000090000000a0000000b0000000c0000000d000000
  - _ID: IB-16
    ItemType: 2
    Usability: 0
    Name: Remedy Chunk
    Icon: {fileID: 21300000, guid: 56e22e496644f104f93554c8c6614337, type: 3}
    Description: Medicine made with the extract of a plant that can clear status ailments
      for allies
    BuyPrice: 0
    SellPrice: 100
    Weight: 3
    RareType: 1
    ConsumableType: 0
    Target: 4
    ItemParticle: Battle/Battle Particles Resources/Stay/heal_LV1
    RestoredAttributes: []
    CuredStatuses: 0700000008000000090000000a0000000b0000000c0000000d000000
  - _ID: IB-17
    ItemType: 2
    Usability: 0
    Name: Elixir Shards
    Icon: {fileID: 21300000, guid: 23c644026c2b0cb4d9a063e6f1e040c9, type: 3}
    Description: Full Restore (HP 100% + Clear Status Ail)
    BuyPrice: 0
    SellPrice: 350
    Weight: 3
    RareType: 3
    ConsumableType: 0
    Target: 0
    ItemParticle: Battle/Battle Particles Resources/Stay/heal_LV4
    RestoredAttributes:
    - _ID: 0
      ItemID: 
      _Attribute: 13
      Value: 100
    CuredStatuses: 0700000008000000090000000a0000000b0000000c0000000d000000
  - _ID: IB-18
    ItemType: 2
    Usability: 0
    Name: Elixir Stick
    Icon: {fileID: 21300000, guid: 23c644026c2b0cb4d9a063e6f1e040c9, type: 3}
    Description: Full Restore (HP 100% + Clear Status Ail)
    BuyPrice: 0
    SellPrice: 450
    Weight: 4
    RareType: 3
    ConsumableType: 0
    Target: 2
    ItemParticle: Battle/Battle Particles Resources/Stay/heal_LV4
    RestoredAttributes:
    - _ID: 0
      ItemID: 
      _Attribute: 13
      Value: 100
    CuredStatuses: 0700000008000000090000000a0000000b0000000c0000000d000000
  - _ID: IB-19
    ItemType: 2
    Usability: 0
    Name: Elixir Pallete
    Icon: {fileID: 21300000, guid: 23c644026c2b0cb4d9a063e6f1e040c9, type: 3}
    Description: Full Restore (HP 100% + Clear Status Ail)
    BuyPrice: 0
    SellPrice: 450
    Weight: 4
    RareType: 3
    ConsumableType: 0
    Target: 1
    ItemParticle: Battle/Battle Particles Resources/Stay/heal_LV4
    RestoredAttributes:
    - _ID: 0
      ItemID: 
      _Attribute: 13
      Value: 100
    CuredStatuses: 0700000008000000090000000a0000000b0000000c0000000d000000
  - _ID: IB-20
    ItemType: 2
    Usability: 0
    Name: Elixir Chunk
    Icon: {fileID: 21300000, guid: 23c644026c2b0cb4d9a063e6f1e040c9, type: 3}
    Description: Full Restore (HP 100% + Clear Status Ail)
    BuyPrice: 0
    SellPrice: 600
    Weight: 5
    RareType: 3
    ConsumableType: 0
    Target: 4
    ItemParticle: Battle/Battle Particles Resources/Stay/heal_LV4
    RestoredAttributes:
    - _ID: 0
      ItemID: 
      _Attribute: 13
      Value: 100
    CuredStatuses: 0700000008000000090000000a0000000b0000000c0000000d000000
  - _ID: IB-21
    ItemType: 2
    Usability: 0
    Name: Crossbone
    Icon: {fileID: 21300000, guid: 47e76fa3a556c6f48b0c4b92994e5ba2, type: 3}
    Description: Liqueur of the Gods. Recovery from battle inability
    BuyPrice: 1000
    SellPrice: 400
    Weight: 5
    RareType: 0
    ConsumableType: 0
    Target: 0
    ItemParticle: Battle/Battle Particles Resources/Stay/powerUpB
    RestoredAttributes:
    - _ID: 0
      ItemID: IB-21
      _Attribute: 43
      Value: 30
    CuredStatuses: 05000000
  - _ID: IB-22
    ItemType: 2
    Usability: 0
    Name: Crossbone
    Icon: {fileID: 21300000, guid: 47e76fa3a556c6f48b0c4b92994e5ba2, type: 3}
    Description: Revive (HP 25%)
    BuyPrice: 0
    SellPrice: 500
    Weight: 5
    RareType: 0
    ConsumableType: 0
    Target: 2
    ItemParticle: Battle/Battle Particles Resources/Stay/powerUpB
    RestoredAttributes:
    - _ID: 0
      ItemID: 
      _Attribute: 43
      Value: 25
    CuredStatuses: 05000000
  - _ID: IB-23
    ItemType: 2
    Usability: 0
    Name: Crossbone
    Icon: {fileID: 21300000, guid: 47e76fa3a556c6f48b0c4b92994e5ba2, type: 3}
    Description: Revive (HP 25%)
    BuyPrice: 0
    SellPrice: 500
    Weight: 5
    RareType: 0
    ConsumableType: 0
    Target: 1
    ItemParticle: Battle/Battle Particles Resources/Stay/powerUpB
    RestoredAttributes:
    - _ID: 0
      ItemID: 
      _Attribute: 43
      Value: 25
    CuredStatuses: 05000000
  - _ID: IB-24
    ItemType: 2
    Usability: 0
    Name: Crossbone
    Icon: {fileID: 21300000, guid: 47e76fa3a556c6f48b0c4b92994e5ba2, type: 3}
    Description: Crossbone
    BuyPrice: 0
    SellPrice: 600
    Weight: 10
    RareType: 0
    ConsumableType: 0
    Target: 4
    ItemParticle: Battle/Battle Particles Resources/Stay/powerUpB
    RestoredAttributes:
    - _ID: 0
      ItemID: 
      _Attribute: 43
      Value: 25
    CuredStatuses: 05000000
  _DatabaseID: Healing
