%YAML 1.1
%TAG !u! tag:unity3d.com,2011:
--- !u!114 &11400000
MonoBehaviour:
  m_ObjectHideFlags: 0
  m_PrefabParentObject: {fileID: 0}
  m_PrefabInternal: {fileID: 0}
  m_GameObject: {fileID: 0}
  m_Enabled: 1
  m_EditorHideFlags: 0
  m_Script: {fileID: 11500000, guid: 4c22dae9c7d52d0428c03be751d1b836, type: 3}
  m_Name: DefenseSkillDatabase
  m_EditorClassIdentifier: 
  database:
  - IdSkill: 
    Name: None
    Description: 
    CommandValue: 0
    SkillType: 3
    BuffPercentage: 0
    Target: 0
    SkillBaseLevel: 1
    Cost: 100000
    Buffs: []
    TargetFormationType: 3
  - IdSkill: DS-01
    Name: Evoke
    Description: Raise stats by 30%
    CommandValue: 65316863
    SkillType: 3
    BuffPercentage: 100
    Target: 4
    SkillBaseLevel: 1
    Cost: 100
    Buffs:
    - _ID: 30
      _MetaId: 29
      Name: Physical Strengthen II
      Type: 0
      EventType: 4
      Description: 
      Turns: 4
      value: 0
      BuffPrimary:
      - AttributeType: 0
        value: 25
      BuffSecondary: []
      ActionsBuffEnum: 
      StatusBuff: 0
      StatusType: 0
      Stackable: 0
      BuffInflictID: 0
    - _ID: 70
      _MetaId: 70
      Name: Defend Up II
      Type: 0
      EventType: 4
      Description: 
      Turns: 4
      value: 0
      BuffPrimary:
      - AttributeType: 1
        value: 35
      BuffSecondary: []
      ActionsBuffEnum: 
      StatusBuff: 0
      StatusType: 0
      Stackable: 0
      BuffInflictID: 0
    - _ID: 72
      _MetaId: 72
      Name: AGI UP
      Type: 0
      EventType: 4
      Description: 
      Turns: 4
      value: 0
      BuffPrimary:
      - AttributeType: 4
        value: 30
      BuffSecondary: []
      ActionsBuffEnum: 
      StatusBuff: 0
      StatusType: 0
      Stackable: 0
      BuffInflictID: 0
    TargetFormationType: 0
  _DatabaseID: Defensive Skill
