%YAML 1.1
%TAG !u! tag:unity3d.com,2011:
--- !u!114 &11400000
MonoBehaviour:
  m_ObjectHideFlags: 0
  m_PrefabParentObject: {fileID: 0}
  m_PrefabInternal: {fileID: 0}
  m_GameObject: {fileID: 0}
  m_Enabled: 1
  m_EditorHideFlags: 0
  m_Script: {fileID: 11500000, guid: 0eaf3a394dca91347a199971c7bd3150, type: 3}
  m_Name: NormalSkillDatabase
  m_EditorClassIdentifier: 
  database:
  - IdSkill: NM-01
    Name: Marginal Strength
    Description: Slightly increase strength by 10%
    CommandValue: 74373327
    SkillType: 1
    BuffPercentage: 0
    Target: 0
    DamagePercentage: 0
    Element: 2
    DamageType: 0
    TargetFormationType: 0
    NormalSkillParticle: Buff Red
    BuffsChance:
    - Chance: 100
      BuffEffect:
        _ID: 29
        _MetaId: 29
        Name: Physical Strengthen I
        Type: 0
        EventType: 4
        Description: 
        Turns: 4
        value: 0
        BuffPrimary:
        - AttributeType: 0
          value: 10
        BuffSecondary: []
        ActionsBuffEnum: 
        StatusBuff: 0
        StatusType: 0
        Stackable: 0
        BuffInflictID: 0
  - IdSkill: NM-02
    Name: Moderate Strength
    Description: Moderately increase strength by 25%
    CommandValue: 74373328
    SkillType: 1
    BuffPercentage: 0
    Target: 0
    DamagePercentage: 0
    Element: 2
    DamageType: 0
    TargetFormationType: 0
    NormalSkillParticle: Buff Red
    BuffsChance:
    - Chance: 100
      BuffEffect:
        _ID: 30
        _MetaId: 29
        Name: Physical Strengthen II
        Type: 0
        EventType: 4
        Description: 
        Turns: 4
        value: 0
        BuffPrimary:
        - AttributeType: 0
          value: 25
        BuffSecondary: []
        ActionsBuffEnum: 
        StatusBuff: 0
        StatusType: 0
        Stackable: 0
        BuffInflictID: 0
  - IdSkill: NM-03
    Name: Major Strength
    Description: Majorly increase strength by 50%
    CommandValue: 74373329
    SkillType: 1
    BuffPercentage: 0
    Target: 0
    DamagePercentage: 0
    Element: 2
    DamageType: 0
    TargetFormationType: 0
    NormalSkillParticle: 
    BuffsChance:
    - Chance: 100
      BuffEffect:
        _ID: 31
        _MetaId: 29
        Name: Physical Strengthen III
        Type: 0
        EventType: 4
        Description: 
        Turns: 4
        value: 0
        BuffPrimary:
        - AttributeType: 0
          value: 50
        BuffSecondary: []
        ActionsBuffEnum: 
        StatusBuff: 0
        StatusType: 0
        Stackable: 0
        BuffInflictID: 0
  - IdSkill: NM-04
    Name: Radical Strength
    Description: Radically increase strength by 45%
    CommandValue: 74373330
    SkillType: 1
    BuffPercentage: 0
    Target: 0
    DamagePercentage: 0
    Element: 2
    DamageType: 0
    TargetFormationType: 0
    NormalSkillParticle: 
    BuffsChance:
    - Chance: 100
      BuffEffect:
        _ID: 32
        _MetaId: 29
        Name: Physical Strengthen IV
        Type: 0
        EventType: 4
        Description: 
        Turns: 4
        value: 0
        BuffPrimary:
        - AttributeType: 0
          value: 9
        - AttributeType: 1
          value: 9
        BuffSecondary: []
        ActionsBuffEnum: 
        StatusBuff: 0
        StatusType: 0
        Stackable: 0
        BuffInflictID: 0
  - IdSkill: NM-05
    Name: Divine Strength
    Description: Divinely increase strength by 50%
    CommandValue: 74373331
    SkillType: 1
    BuffPercentage: 0
    Target: 0
    DamagePercentage: 0
    Element: 2
    DamageType: 0
    TargetFormationType: 0
    NormalSkillParticle: 
    BuffsChance:
    - Chance: 100
      BuffEffect:
        _ID: 33
        _MetaId: 29
        Name: Physical Strengthen V
        Type: 0
        EventType: 4
        Description: 
        Turns: 4
        value: 0
        BuffPrimary:
        - AttributeType: 0
          value: 10
        - AttributeType: 1
          value: 10
        BuffSecondary: []
        ActionsBuffEnum: 
        StatusBuff: 0
        StatusType: 0
        Stackable: 0
        BuffInflictID: 0
  - IdSkill: NM-06
    Name: Marginal Melt
    Description: Slightly decrease vitality by 20%
    CommandValue: 74373332
    SkillType: 0
    BuffPercentage: 0
    Target: 0
    DamagePercentage: 0
    Element: 2
    DamageType: 0
    TargetFormationType: 1
    NormalSkillParticle: Debuff Blue
    BuffsChance:
    - Chance: 30
      BuffEffect:
        _ID: 1
        _MetaId: 1
        Name: Burn
        Type: 0
        EventType: 4
        Description: 
        Turns: 4
        value: 0
        BuffPrimary:
        - AttributeType: 1
          value: -20
        BuffSecondary: []
        ActionsBuffEnum: 
        StatusBuff: 8
        StatusType: 1
        Stackable: 0
        BuffInflictID: 0
  - IdSkill: NM-07
    Name: Moderate Melt
    Description: Moderately decrease vitality by 35%
    CommandValue: 74373333
    SkillType: 0
    BuffPercentage: 0
    Target: 0
    DamagePercentage: 0
    Element: 2
    DamageType: 0
    TargetFormationType: 1
    NormalSkillParticle: 
    BuffsChance:
    - Chance: 45
      BuffEffect:
        _ID: 65
        _MetaId: 65
        Name: Burn II
        Type: 0
        EventType: 4
        Description: 
        Turns: 4
        value: 0
        BuffPrimary:
        - AttributeType: 1
          value: -35
        BuffSecondary: []
        ActionsBuffEnum: 
        StatusBuff: 8
        StatusType: 1
        Stackable: 0
        BuffInflictID: 0
  - IdSkill: NM-08
    Name: Major Melt
    Description: Majorly decrease vitality by 50%
    CommandValue: 74373334
    SkillType: 0
    BuffPercentage: 0
    Target: 0
    DamagePercentage: 0
    Element: 2
    DamageType: 0
    TargetFormationType: 1
    NormalSkillParticle: 
    BuffsChance:
    - Chance: 60
      BuffEffect:
        _ID: 67
        _MetaId: 67
        Name: Blind II
        Type: 1
        EventType: 4
        Description: 
        Turns: 4
        value: 0
        BuffPrimary: []
        BuffSecondary:
        - AttributeType: 26
          value: -50
        - AttributeType: 12
          value: -50
        ActionsBuffEnum: 
        StatusBuff: 12
        StatusType: 1
        Stackable: 0
        BuffInflictID: 0
  - IdSkill: NM-09
    Name: Radical Melt
    Description: Radically decrease vitality by 45%
    CommandValue: 74373335
    SkillType: 0
    BuffPercentage: 0
    Target: 0
    DamagePercentage: 0
    Element: 2
    DamageType: 0
    TargetFormationType: 1
    NormalSkillParticle: 
    BuffsChance:
    - Chance: 97.5
      BuffEffect:
        _ID: 1
        _MetaId: 1
        Name: Burn
        Type: 0
        EventType: 4
        Description: 
        Turns: 4
        value: 0
        BuffPrimary:
        - AttributeType: 1
          value: -20
        BuffSecondary: []
        ActionsBuffEnum: 
        StatusBuff: 8
        StatusType: 1
        Stackable: 0
        BuffInflictID: 0
  - IdSkill: NM-10
    Name: Divine Melt
    Description: Divinely decrease vitality by 50%
    CommandValue: 74373357
    SkillType: 0
    BuffPercentage: 0
    Target: 0
    DamagePercentage: 0
    Element: 2
    DamageType: 0
    TargetFormationType: 1
    NormalSkillParticle: 
    BuffsChance:
    - Chance: 100
      BuffEffect:
        _ID: 1
        _MetaId: 1
        Name: Burn
        Type: 0
        EventType: 4
        Description: 
        Turns: 4
        value: 0
        BuffPrimary:
        - AttributeType: 1
          value: -20
        BuffSecondary: []
        ActionsBuffEnum: 
        StatusBuff: 8
        StatusType: 1
        Stackable: 0
        BuffInflictID: 0
  - IdSkill: NM-11
    Name: Poison Arrow
    Description: Shoot a poison arrow to a single enemy
    CommandValue: 74373358
    SkillType: 0
    BuffPercentage: 0
    Target: 0
    DamagePercentage: 0
    Element: 2
    DamageType: 0
    TargetFormationType: 1
    NormalSkillParticle: Debuff Green
    BuffsChance:
    - Chance: 30
      BuffEffect:
        _ID: 4
        _MetaId: 4
        Name: Poison
        Type: 2
        EventType: 6
        Description: 
        Turns: 3
        value: -5
        BuffPrimary: []
        BuffSecondary: []
        ActionsBuffEnum: 
        StatusBuff: 11
        StatusType: 1
        Stackable: 0
        BuffInflictID: 0
  - IdSkill: NM-12
    Name: Potent Poison Arrow
    Description: Shoot a potent poison arrow to a single foe
    CommandValue: 74373359
    SkillType: 0
    BuffPercentage: 0
    Target: 0
    DamagePercentage: 0
    Element: 2
    DamageType: 0
    TargetFormationType: 1
    NormalSkillParticle: Debuff Red
    BuffsChance:
    - Chance: 45
      BuffEffect:
        _ID: 39
        _MetaId: 4
        Name: Poison II
        Type: 2
        EventType: 6
        Description: 
        Turns: 3
        value: -7
        BuffPrimary: []
        BuffSecondary: []
        ActionsBuffEnum: 
        StatusBuff: 11
        StatusType: 1
        Stackable: 0
        BuffInflictID: 0
  - IdSkill: NM-13
    Name: Venom Arrow
    Description: Shoot a venomous arrow to a single foe
    CommandValue: 74373360
    SkillType: 0
    BuffPercentage: 0
    Target: 0
    DamagePercentage: 0
    Element: 2
    DamageType: 0
    TargetFormationType: 1
    NormalSkillParticle: 
    BuffsChance:
    - Chance: 60
      BuffEffect:
        _ID: 40
        _MetaId: 4
        Name: Poison III
        Type: 2
        EventType: 6
        Description: 
        Turns: 3
        value: -9
        BuffPrimary: []
        BuffSecondary: []
        ActionsBuffEnum: 
        StatusBuff: 11
        StatusType: 1
        Stackable: 0
        BuffInflictID: 0
  - IdSkill: NM-14
    Name: Potent Venom Arrow
    Description: Shoot a potent venomous arrow to a single foe
    CommandValue: 74373361
    SkillType: 0
    BuffPercentage: 0
    Target: 0
    DamagePercentage: 0
    Element: 2
    DamageType: 0
    TargetFormationType: 1
    NormalSkillParticle: 
    BuffsChance:
    - Chance: 20
      BuffEffect:
        _ID: 41
        _MetaId: 4
        Name: Poison IV
        Type: 2
        EventType: 6
        Description: 
        Turns: 3
        value: -12.5
        BuffPrimary: []
        BuffSecondary: []
        ActionsBuffEnum: 
        StatusBuff: 11
        StatusType: 1
        Stackable: 0
        BuffInflictID: 0
  - IdSkill: NM-15
    Name: Deadly Venom Arrow
    Description: Shoot a deadly venomous arrow to a single foe
    CommandValue: 74373362
    SkillType: 0
    BuffPercentage: 0
    Target: 0
    DamagePercentage: 0
    Element: 2
    DamageType: 0
    TargetFormationType: 1
    NormalSkillParticle: 
    BuffsChance:
    - Chance: 30
      BuffEffect:
        _ID: 42
        _MetaId: 4
        Name: Poison V
        Type: 2
        EventType: 6
        Description: 
        Turns: 3
        value: -15
        BuffPrimary: []
        BuffSecondary: []
        ActionsBuffEnum: 
        StatusBuff: 11
        StatusType: 1
        Stackable: 0
        BuffInflictID: 0
  - IdSkill: NM-16
    Name: Marginal Debilitate
    Description: Slightly decrease intelligence by 30%
    CommandValue: 74373363
    SkillType: 0
    BuffPercentage: 0
    Target: 0
    DamagePercentage: 0
    Element: 2
    DamageType: 0
    TargetFormationType: 1
    NormalSkillParticle: Debuff Blue
    BuffsChance:
    - Chance: 30
      BuffEffect:
        _ID: 43
        _MetaId: 43
        Name: Magical Debilitate I
        Type: 0
        EventType: 4
        Description: 
        Turns: 4
        value: 0
        BuffPrimary:
        - AttributeType: 2
          value: -20
        BuffSecondary: []
        ActionsBuffEnum: 
        StatusBuff: 0
        StatusType: 1
        Stackable: 0
        BuffInflictID: 0
  - IdSkill: NM-17
    Name: Moderate Debilitate
    Description: Moderately decrease intelligence by 35%
    CommandValue: 74373364
    SkillType: 0
    BuffPercentage: 0
    Target: 0
    DamagePercentage: 0
    Element: 2
    DamageType: 0
    TargetFormationType: 1
    NormalSkillParticle: Debuff Blue
    BuffsChance:
    - Chance: 45
      BuffEffect:
        _ID: 44
        _MetaId: 43
        Name: Magical Debilitate II
        Type: 0
        EventType: 4
        Description: 
        Turns: 4
        value: 0
        BuffPrimary:
        - AttributeType: 2
          value: -35
        BuffSecondary: []
        ActionsBuffEnum: 
        StatusBuff: 0
        StatusType: 1
        Stackable: 0
        BuffInflictID: 0
  - IdSkill: NM-18
    Name: Major Debilitate
    Description: Majorly decrease intelligence by 40%
    CommandValue: 74373365
    SkillType: 0
    BuffPercentage: 0
    Target: 0
    DamagePercentage: 0
    Element: 2
    DamageType: 0
    TargetFormationType: 1
    NormalSkillParticle: Debuff Red
    BuffsChance:
    - Chance: 60
      BuffEffect:
        _ID: 45
        _MetaId: 43
        Name: Magical Debilitate III
        Type: 0
        EventType: 4
        Description: 
        Turns: 4
        value: 0
        BuffPrimary:
        - AttributeType: 2
          value: -50
        BuffSecondary: []
        ActionsBuffEnum: 
        StatusBuff: 0
        StatusType: 1
        Stackable: 0
        BuffInflictID: 0
  - IdSkill: NM-19
    Name: Radical Debilitate
    Description: Radically decrease intelligence by 45%
    CommandValue: 74373366
    SkillType: 0
    BuffPercentage: 0
    Target: 0
    DamagePercentage: 0
    Element: 2
    DamageType: 0
    TargetFormationType: 1
    NormalSkillParticle: Debuff Red
    BuffsChance:
    - Chance: 97.5
      BuffEffect:
        _ID: 43
        _MetaId: 43
        Name: Magical Debilitate I
        Type: 0
        EventType: 4
        Description: 
        Turns: 4
        value: 0
        BuffPrimary:
        - AttributeType: 2
          value: -20
        BuffSecondary: []
        ActionsBuffEnum: 
        StatusBuff: 0
        StatusType: 1
        Stackable: 0
        BuffInflictID: 0
  - IdSkill: NM-20
    Name: Divine Debilitate
    Description: Divinely decrease intelligence by 50%
    CommandValue: 74373388
    SkillType: 0
    BuffPercentage: 0
    Target: 0
    DamagePercentage: 0
    Element: 2
    DamageType: 0
    TargetFormationType: 1
    NormalSkillParticle: 
    BuffsChance:
    - Chance: 100
      BuffEffect:
        _ID: 43
        _MetaId: 43
        Name: Magical Debilitate I
        Type: 0
        EventType: 4
        Description: 
        Turns: 4
        value: 0
        BuffPrimary:
        - AttributeType: 2
          value: -20
        BuffSecondary: []
        ActionsBuffEnum: 
        StatusBuff: 0
        StatusType: 1
        Stackable: 0
        BuffInflictID: 0
  - IdSkill: NM-21
    Name: Quick Meditation
    Description: Gather life force from surrounding to slowly regenerate 5% of max
      HP to an ally
    CommandValue: 74373389
    SkillType: 1
    BuffPercentage: 0
    Target: 0
    DamagePercentage: 0
    Element: 2
    DamageType: 0
    TargetFormationType: 0
    NormalSkillParticle: Debuff Red
    BuffsChance:
    - Chance: 100
      BuffEffect:
        _ID: 9
        _MetaId: 9
        Name: Regen I
        Type: 2
        EventType: 6
        Description: 
        Turns: 4
        value: 5
        BuffPrimary: []
        BuffSecondary: []
        ActionsBuffEnum: 
        StatusBuff: 2
        StatusType: 0
        Stackable: 0
        BuffInflictID: 0
  - IdSkill: NM-22
    Name: Moderate Meditation
    Description: Gather life force from surrounding to slowly regenerate 10% of max
      HP to an ally
    CommandValue: 74373390
    SkillType: 1
    BuffPercentage: 0
    Target: 0
    DamagePercentage: 0
    Element: 2
    DamageType: 0
    TargetFormationType: 0
    NormalSkillParticle: Debuff Red
    BuffsChance:
    - Chance: 100
      BuffEffect:
        _ID: 52
        _MetaId: 52
        Name: Regen II
        Type: 2
        EventType: 6
        Description: 
        Turns: 4
        value: 10
        BuffPrimary: []
        BuffSecondary: []
        ActionsBuffEnum: 
        StatusBuff: 2
        StatusType: 0
        Stackable: 0
        BuffInflictID: 0
  - IdSkill: NM-23
    Name: Long Meditation
    Description: Gather life force from surrounding to slowly regenerate 15% of max
      HP to an ally
    CommandValue: 74373391
    SkillType: 1
    BuffPercentage: 0
    Target: 0
    DamagePercentage: 0
    Element: 2
    DamageType: 0
    TargetFormationType: 0
    NormalSkillParticle: 
    BuffsChance:
    - Chance: 100
      BuffEffect:
        _ID: 53
        _MetaId: 52
        Name: Regen III
        Type: 2
        EventType: 6
        Description: 
        Turns: 4
        value: 15
        BuffPrimary: []
        BuffSecondary: []
        ActionsBuffEnum: 
        StatusBuff: 2
        StatusType: 0
        Stackable: 0
        BuffInflictID: 0
  - IdSkill: NM-24
    Name: Radical Meditation
    Description: Gather life force from surrounding to slowly regenerate 20% of max
      HP to an ally
    CommandValue: 74373392
    SkillType: 1
    BuffPercentage: 0
    Target: 0
    DamagePercentage: 0
    Element: 2
    DamageType: 0
    TargetFormationType: 0
    NormalSkillParticle: 
    BuffsChance:
    - Chance: 100
      BuffEffect:
        _ID: 54
        _MetaId: 52
        Name: Regen IV
        Type: 2
        EventType: 6
        Description: 
        Turns: 4
        value: 20
        BuffPrimary: []
        BuffSecondary: []
        ActionsBuffEnum: 
        StatusBuff: 2
        StatusType: 0
        Stackable: 0
        BuffInflictID: 0
  - IdSkill: NM-25
    Name: Divine Meditation
    Description: Gather life force from surrounding to slowly regenerate 25% of max
      HP to an ally
    CommandValue: 74373393
    SkillType: 1
    BuffPercentage: 0
    Target: 0
    DamagePercentage: 0
    Element: 2
    DamageType: 0
    TargetFormationType: 0
    NormalSkillParticle: 
    BuffsChance:
    - Chance: 100
      BuffEffect:
        _ID: 55
        _MetaId: 52
        Name: Regen V
        Type: 2
        EventType: 6
        Description: 
        Turns: 4
        value: 25
        BuffPrimary: []
        BuffSecondary: []
        ActionsBuffEnum: 
        StatusBuff: 2
        StatusType: 0
        Stackable: 0
        BuffInflictID: 0
  - IdSkill: NM-26
    Name: Cure
    Description: Gather life force from surrounding to instantly cure 20% of max HP
      to an ally
    CommandValue: 74373394
    SkillType: 1
    BuffPercentage: 0
    Target: 0
    DamagePercentage: 0
    Element: 2
    DamageType: 0
    TargetFormationType: 0
    NormalSkillParticle: 
    BuffsChance:
    - Chance: 100
      BuffEffect:
        _ID: 22
        _MetaId: 22
        Name: Cure I
        Type: 10
        EventType: 6
        Description: 
        Turns: 0
        value: 20
        BuffPrimary: []
        BuffSecondary: []
        ActionsBuffEnum: 
        StatusBuff: 0
        StatusType: 0
        Stackable: 0
        BuffInflictID: 0
  - IdSkill: NM-27
    Name: Heal
    Description: Gather life force from surrounding to instantly heal 25% of max HP
      to an ally
    CommandValue: 74373395
    SkillType: 1
    BuffPercentage: 0
    Target: 0
    DamagePercentage: 0
    Element: 2
    DamageType: 0
    TargetFormationType: 0
    NormalSkillParticle: 
    BuffsChance:
    - Chance: 100
      BuffEffect:
        _ID: 48
        _MetaId: 48
        Name: Cure II
        Type: 10
        EventType: 6
        Description: 
        Turns: 0
        value: 35
        BuffPrimary: []
        BuffSecondary: []
        ActionsBuffEnum: 
        StatusBuff: 0
        StatusType: 0
        Stackable: 0
        BuffInflictID: 0
  - IdSkill: NM-28
    Name: Mend
    Description: Gather life force from surrounding to instantly mend 30% of max HP
      to an ally
    CommandValue: 74373396
    SkillType: 1
    BuffPercentage: 0
    Target: 0
    DamagePercentage: 0
    Element: 2
    DamageType: 0
    TargetFormationType: 0
    NormalSkillParticle: 
    BuffsChance:
    - Chance: 100
      BuffEffect:
        _ID: 49
        _MetaId: 48
        Name: Cure III
        Type: 10
        EventType: 6
        Description: 
        Turns: 0
        value: 60
        BuffPrimary: []
        BuffSecondary: []
        ActionsBuffEnum: 
        StatusBuff: 0
        StatusType: 0
        Stackable: 0
        BuffInflictID: 0
  - IdSkill: NM-29
    Name: Restore
    Description: Gather life force from surrounding to instantly restore 35% of max
      HP to an ally
    CommandValue: 74373397
    SkillType: 1
    BuffPercentage: 0
    Target: 0
    DamagePercentage: 0
    Element: 2
    DamageType: 0
    TargetFormationType: 0
    NormalSkillParticle: 
    BuffsChance:
    - Chance: 100
      BuffEffect:
        _ID: 50
        _MetaId: 48
        Name: Cure IV
        Type: 10
        EventType: 6
        Description: 
        Turns: 0
        value: 50
        BuffPrimary: []
        BuffSecondary: []
        ActionsBuffEnum: 
        StatusBuff: 0
        StatusType: 0
        Stackable: 0
        BuffInflictID: 0
  - IdSkill: NM-30
    Name: Rejuvenate
    Description: Gather life force from surrounding to instantly rejuvenate 40% of
      max HP to an ally
    CommandValue: 74373419
    SkillType: 1
    BuffPercentage: 0
    Target: 0
    DamagePercentage: 0
    Element: 2
    DamageType: 0
    TargetFormationType: 0
    NormalSkillParticle: 
    BuffsChance:
    - Chance: 100
      BuffEffect:
        _ID: 51
        _MetaId: 48
        Name: Cure V
        Type: 10
        EventType: 6
        Description: 
        Turns: 1
        value: 5
        BuffPrimary: []
        BuffSecondary: []
        ActionsBuffEnum: 
        StatusBuff: 0
        StatusType: 0
        Stackable: 0
        BuffInflictID: 0
  - IdSkill: NM-31
    Name: Minor Silence
    Description: Silence a single foe to prevent grimoire casting
    CommandValue: 74373420
    SkillType: 0
    BuffPercentage: 0
    Target: 0
    DamagePercentage: 0
    Element: 2
    DamageType: 0
    TargetFormationType: 1
    NormalSkillParticle: 
    BuffsChance:
    - Chance: 30
      BuffEffect:
        _ID: 2
        _MetaId: 2
        Name: Silence
        Type: 5
        EventType: 2
        Description: 
        Turns: 4
        value: 0
        BuffPrimary: []
        BuffSecondary: []
        ActionsBuffEnum: 02000000
        StatusBuff: 9
        StatusType: 1
        Stackable: 0
        BuffInflictID: 0
  - IdSkill: NM-32
    Name: Moderate Silence
    Description: Silence a single foe to prevent grimoire casting
    CommandValue: 74373421
    SkillType: 0
    BuffPercentage: 0
    Target: 0
    DamagePercentage: 0
    Element: 2
    DamageType: 0
    TargetFormationType: 1
    NormalSkillParticle: 
    BuffsChance:
    - Chance: 45
      BuffEffect:
        _ID: 2
        _MetaId: 2
        Name: Silence
        Type: 5
        EventType: 2
        Description: 
        Turns: 4
        value: 0
        BuffPrimary: []
        BuffSecondary: []
        ActionsBuffEnum: 02000000
        StatusBuff: 9
        StatusType: 1
        Stackable: 0
        BuffInflictID: 0
  - IdSkill: NM-33
    Name: Major Silence
    Description: Silence a single foe to prevent grimoire casting
    CommandValue: 74373422
    SkillType: 0
    BuffPercentage: 0
    Target: 0
    DamagePercentage: 0
    Element: 2
    DamageType: 0
    TargetFormationType: 1
    NormalSkillParticle: 
    BuffsChance:
    - Chance: 65
      BuffEffect:
        _ID: 2
        _MetaId: 2
        Name: Silence
        Type: 5
        EventType: 2
        Description: 
        Turns: 4
        value: 0
        BuffPrimary: []
        BuffSecondary: []
        ActionsBuffEnum: 02000000
        StatusBuff: 9
        StatusType: 1
        Stackable: 0
        BuffInflictID: 0
  - IdSkill: NM-34
    Name: Extreme Silence
    Description: Silence a single foe to prevent grimoire casting
    CommandValue: 74373423
    SkillType: 0
    BuffPercentage: 0
    Target: 0
    DamagePercentage: 0
    Element: 2
    DamageType: 0
    TargetFormationType: 1
    NormalSkillParticle: 
    BuffsChance:
    - Chance: 75
      BuffEffect:
        _ID: 2
        _MetaId: 2
        Name: Silence
        Type: 5
        EventType: 2
        Description: 
        Turns: 4
        value: 0
        BuffPrimary: []
        BuffSecondary: []
        ActionsBuffEnum: 02000000
        StatusBuff: 9
        StatusType: 1
        Stackable: 0
        BuffInflictID: 0
  - IdSkill: NM-35
    Name: Deafening Silence
    Description: Silence a single foe to prevent grimoire casting
    CommandValue: 74373424
    SkillType: 0
    BuffPercentage: 0
    Target: 0
    DamagePercentage: 0
    Element: 2
    DamageType: 0
    TargetFormationType: 1
    NormalSkillParticle: 
    BuffsChance:
    - Chance: 80
      BuffEffect:
        _ID: 2
        _MetaId: 2
        Name: Silence
        Type: 5
        EventType: 2
        Description: 
        Turns: 4
        value: 0
        BuffPrimary: []
        BuffSecondary: []
        ActionsBuffEnum: 02000000
        StatusBuff: 9
        StatusType: 1
        Stackable: 0
        BuffInflictID: 0
  - IdSkill: NM-36
    Name: Minor Blind
    Description: Blind a single foe to reduce ability to hit and evade
    CommandValue: 74373425
    SkillType: 0
    BuffPercentage: 0
    Target: 0
    DamagePercentage: 0
    Element: 2
    DamageType: 0
    TargetFormationType: 1
    NormalSkillParticle: 
    BuffsChance:
    - Chance: 30
      BuffEffect:
        _ID: 5
        _MetaId: 5
        Name: Blind
        Type: 1
        EventType: 4
        Description: 
        Turns: 4
        value: 0
        BuffPrimary: []
        BuffSecondary:
        - AttributeType: 26
          value: -20
        - AttributeType: 12
          value: -20
        ActionsBuffEnum: 
        StatusBuff: 12
        StatusType: 1
        Stackable: 0
        BuffInflictID: 0
  - IdSkill: NM-37
    Name: Moderate Blind
    Description: Blind a single foe to reduce ability to hit and evade
    CommandValue: 74373426
    SkillType: 0
    BuffPercentage: 0
    Target: 0
    DamagePercentage: 0
    Element: 2
    DamageType: 0
    TargetFormationType: 1
    NormalSkillParticle: 
    BuffsChance:
    - Chance: 45
      BuffEffect:
        _ID: 67
        _MetaId: 67
        Name: Blind II
        Type: 1
        EventType: 4
        Description: 
        Turns: 4
        value: 0
        BuffPrimary: []
        BuffSecondary:
        - AttributeType: 26
          value: -50
        - AttributeType: 12
          value: -50
        ActionsBuffEnum: 
        StatusBuff: 12
        StatusType: 1
        Stackable: 0
        BuffInflictID: 0
  - IdSkill: NM-38
    Name: Major Blind
    Description: Blind a single foe to reduce ability to hit and evade
    CommandValue: 74373427
    SkillType: 0
    BuffPercentage: 0
    Target: 0
    DamagePercentage: 0
    Element: 2
    DamageType: 0
    TargetFormationType: 1
    NormalSkillParticle: 
    BuffsChance:
    - Chance: 65
      BuffEffect:
        _ID: 68
        _MetaId: 68
        Name: Blind III
        Type: 1
        EventType: 4
        Description: 
        Turns: 4
        value: 0
        BuffPrimary: []
        BuffSecondary:
        - AttributeType: 26
          value: -75
        - AttributeType: 12
          value: -75
        ActionsBuffEnum: 
        StatusBuff: 12
        StatusType: 1
        Stackable: 0
        BuffInflictID: 0
  - IdSkill: NM-39
    Name: Extreme Blind
    Description: Blind a single foe to reduce ability to hit and evade
    CommandValue: 74373428
    SkillType: 0
    BuffPercentage: 0
    Target: 0
    DamagePercentage: 0
    Element: 2
    DamageType: 0
    TargetFormationType: 1
    NormalSkillParticle: 
    BuffsChance:
    - Chance: 75
      BuffEffect:
        _ID: 68
        _MetaId: 68
        Name: Blind III
        Type: 1
        EventType: 4
        Description: 
        Turns: 4
        value: 0
        BuffPrimary: []
        BuffSecondary:
        - AttributeType: 26
          value: -75
        - AttributeType: 12
          value: -75
        ActionsBuffEnum: 
        StatusBuff: 12
        StatusType: 1
        Stackable: 0
        BuffInflictID: 0
  - IdSkill: NM-40
    Name: Sacrilege Blind
    Description: Blind a single foe to reduce ability to hit and evade
    CommandValue: 74373450
    SkillType: 0
    BuffPercentage: 0
    Target: 0
    DamagePercentage: 0
    Element: 2
    DamageType: 0
    TargetFormationType: 1
    NormalSkillParticle: 
    BuffsChance:
    - Chance: 80
      BuffEffect:
        _ID: 5
        _MetaId: 5
        Name: Blind
        Type: 1
        EventType: 4
        Description: 
        Turns: 4
        value: 0
        BuffPrimary: []
        BuffSecondary:
        - AttributeType: 26
          value: -20
        - AttributeType: 12
          value: -20
        ActionsBuffEnum: 
        StatusBuff: 12
        StatusType: 1
        Stackable: 0
        BuffInflictID: 0
  - IdSkill: NM-41
    Name: Life Suck
    Description: Suck the life out of a single foe
    CommandValue: 74373451
    SkillType: 1
    BuffPercentage: 0
    Target: 0
    DamagePercentage: 0
    Element: 2
    DamageType: 0
    TargetFormationType: 0
    NormalSkillParticle: 
    BuffsChance:
    - Chance: 100
      BuffEffect:
        _ID: 12
        _MetaId: 12
        Name: Drain I
        Type: 4
        EventType: 6
        Description: 
        Turns: 4
        value: 20
        BuffPrimary: []
        BuffSecondary: []
        ActionsBuffEnum: 
        StatusBuff: 6
        StatusType: 0
        Stackable: 0
        BuffInflictID: 0
  - IdSkill: NM-42
    Name: Life Drain
    Description: Drain the life out of a single foe
    CommandValue: 74373452
    SkillType: 1
    BuffPercentage: 0
    Target: 0
    DamagePercentage: 0
    Element: 2
    DamageType: 0
    TargetFormationType: 0
    NormalSkillParticle: 
    BuffsChance:
    - Chance: 100
      BuffEffect:
        _ID: 24
        _MetaId: 12
        Name: Drain II
        Type: 4
        EventType: 6
        Description: 
        Turns: 4
        value: 25
        BuffPrimary: []
        BuffSecondary: []
        ActionsBuffEnum: 
        StatusBuff: 6
        StatusType: 0
        Stackable: 0
        BuffInflictID: 0
  - IdSkill: NM-43
    Name: Life Absorb
    Description: Absorb the life out of a single foe
    CommandValue: 74373453
    SkillType: 1
    BuffPercentage: 0
    Target: 0
    DamagePercentage: 0
    Element: 2
    DamageType: 0
    TargetFormationType: 0
    NormalSkillParticle: 
    BuffsChance:
    - Chance: 100
      BuffEffect:
        _ID: 25
        _MetaId: 12
        Name: Drain III
        Type: 4
        EventType: 6
        Description: 
        Turns: 4
        value: 30
        BuffPrimary: []
        BuffSecondary: []
        ActionsBuffEnum: 
        StatusBuff: 6
        StatusType: 0
        Stackable: 0
        BuffInflictID: 0
  - IdSkill: NM-44
    Name: Life Leech
    Description: Leech the life out of a single foe
    CommandValue: 74373454
    SkillType: 1
    BuffPercentage: 0
    Target: 0
    DamagePercentage: 0
    Element: 2
    DamageType: 0
    TargetFormationType: 0
    NormalSkillParticle: 
    BuffsChance:
    - Chance: 100
      BuffEffect:
        _ID: 26
        _MetaId: 12
        Name: Drain IV
        Type: 4
        EventType: 6
        Description: 
        Turns: 4
        value: 35
        BuffPrimary: []
        BuffSecondary: []
        ActionsBuffEnum: 
        StatusBuff: 6
        StatusType: 0
        Stackable: 0
        BuffInflictID: 0
  - IdSkill: NM-45
    Name: Life Consume
    Description: Consume the life out of a single foe
    CommandValue: 74373455
    SkillType: 1
    BuffPercentage: 0
    Target: 0
    DamagePercentage: 0
    Element: 2
    DamageType: 0
    TargetFormationType: 0
    NormalSkillParticle: 
    BuffsChance:
    - Chance: 100
      BuffEffect:
        _ID: 27
        _MetaId: 12
        Name: Drain V
        Type: 4
        EventType: 6
        Description: 
        Turns: 4
        value: 70
        BuffPrimary: []
        BuffSecondary: []
        ActionsBuffEnum: 
        StatusBuff: 6
        StatusType: 0
        Stackable: 0
        BuffInflictID: 0
  - IdSkill: NM-46
    Name: Fear Trap
    Description: Trap a single foe in fear
    CommandValue: 74373456
    SkillType: 0
    BuffPercentage: 0
    Target: 0
    DamagePercentage: 0
    Element: 2
    DamageType: 0
    TargetFormationType: 1
    NormalSkillParticle: 
    BuffsChance:
    - Chance: 30
      BuffEffect:
        _ID: 6
        _MetaId: 6
        Name: Fear
        Type: 5
        EventType: 2
        Description: 
        Turns: 3
        value: -50
        BuffPrimary: []
        BuffSecondary: []
        ActionsBuffEnum: 00000000
        StatusBuff: 13
        StatusType: 1
        Stackable: 0
        BuffInflictID: 0
  - IdSkill: NM-47
    Name: Fear Cage
    Description: Trap a single foe in a cage
    CommandValue: 74373457
    SkillType: 0
    BuffPercentage: 0
    Target: 0
    DamagePercentage: 0
    Element: 2
    DamageType: 0
    TargetFormationType: 1
    NormalSkillParticle: 
    BuffsChance:
    - Chance: 40
      BuffEffect:
        _ID: 6
        _MetaId: 6
        Name: Fear
        Type: 5
        EventType: 2
        Description: 
        Turns: 3
        value: -50
        BuffPrimary: []
        BuffSecondary: []
        ActionsBuffEnum: 00000000
        StatusBuff: 13
        StatusType: 1
        Stackable: 0
        BuffInflictID: 0
  - IdSkill: NM-48
    Name: Fear Sphere
    Description: Trap a single foe in a sphere
    CommandValue: 74373458
    SkillType: 0
    BuffPercentage: 0
    Target: 0
    DamagePercentage: 0
    Element: 2
    DamageType: 0
    TargetFormationType: 1
    NormalSkillParticle: 
    BuffsChance:
    - Chance: 60
      BuffEffect:
        _ID: 6
        _MetaId: 6
        Name: Fear
        Type: 5
        EventType: 2
        Description: 
        Turns: 3
        value: -50
        BuffPrimary: []
        BuffSecondary: []
        ActionsBuffEnum: 00000000
        StatusBuff: 13
        StatusType: 1
        Stackable: 0
        BuffInflictID: 0
  - IdSkill: NM-49
    Name: Fear Prison
    Description: Trap a single foe in a prison
    CommandValue: 74373459
    SkillType: 0
    BuffPercentage: 0
    Target: 0
    DamagePercentage: 0
    Element: 2
    DamageType: 0
    TargetFormationType: 1
    NormalSkillParticle: 
    BuffsChance:
    - Chance: 75
      BuffEffect:
        _ID: 6
        _MetaId: 6
        Name: Fear
        Type: 5
        EventType: 2
        Description: 
        Turns: 3
        value: -50
        BuffPrimary: []
        BuffSecondary: []
        ActionsBuffEnum: 00000000
        StatusBuff: 13
        StatusType: 1
        Stackable: 0
        BuffInflictID: 0
  - IdSkill: NM-50
    Name: Fear Void
    Description: Trap a single foe in a void
    CommandValue: 74373481
    SkillType: 0
    BuffPercentage: 0
    Target: 0
    DamagePercentage: 0
    Element: 2
    DamageType: 0
    TargetFormationType: 1
    NormalSkillParticle: 
    BuffsChance:
    - Chance: 80
      BuffEffect:
        _ID: 6
        _MetaId: 6
        Name: Fear
        Type: 5
        EventType: 2
        Description: 
        Turns: 3
        value: -50
        BuffPrimary: []
        BuffSecondary: []
        ActionsBuffEnum: 00000000
        StatusBuff: 13
        StatusType: 1
        Stackable: 0
        BuffInflictID: 0
  - IdSkill: NM-51
    Name: Iron Wall
    Description: Moderately decrease vitality by 20%
    CommandValue: 74373482
    SkillType: 1
    BuffPercentage: 0
    Target: 0
    DamagePercentage: 0
    Element: 7
    DamageType: 0
    TargetFormationType: 0
    NormalSkillParticle: 
    BuffsChance:
    - Chance: 100
      BuffEffect:
        _ID: 69
        _MetaId: 69
        Name: Defend Up I
        Type: 0
        EventType: 4
        Description: 
        Turns: 4
        value: 0
        BuffPrimary:
        - AttributeType: 1
          value: 20
        BuffSecondary: []
        ActionsBuffEnum: 
        StatusBuff: 0
        StatusType: 0
        Stackable: 0
        BuffInflictID: 0
  - IdSkill: NM-52
    Name: Steel Wall
    Description: Moderately decrease vitality by 35%
    CommandValue: 74373483
    SkillType: 1
    BuffPercentage: 0
    Target: 0
    DamagePercentage: 0
    Element: 7
    DamageType: 0
    TargetFormationType: 0
    NormalSkillParticle: 
    BuffsChance:
    - Chance: 100
      BuffEffect:
        _ID: 70
        _MetaId: 70
        Name: Defend Up II
        Type: 0
        EventType: 4
        Description: 
        Turns: 4
        value: 0
        BuffPrimary:
        - AttributeType: 1
          value: 35
        BuffSecondary: []
        ActionsBuffEnum: 
        StatusBuff: 0
        StatusType: 0
        Stackable: 0
        BuffInflictID: 0
  - IdSkill: NM-53
    Name: Silver Wall
    Description: Moderately decrease vitality by 60%
    CommandValue: 74373484
    SkillType: 1
    BuffPercentage: 0
    Target: 0
    DamagePercentage: 0
    Element: 7
    DamageType: 0
    TargetFormationType: 0
    NormalSkillParticle: 
    BuffsChance:
    - Chance: 100
      BuffEffect:
        _ID: 72
        _MetaId: 72
        Name: AGI UP
        Type: 0
        EventType: 4
        Description: 
        Turns: 4
        value: 0
        BuffPrimary:
        - AttributeType: 4
          value: 30
        BuffSecondary: []
        ActionsBuffEnum: 
        StatusBuff: 0
        StatusType: 0
        Stackable: 0
        BuffInflictID: 0
  - IdSkill: NM-54
    Name: Marginal Paralyze
    Description: 50% chance to skip turn
    CommandValue: 74373485
    SkillType: 0
    BuffPercentage: 30
    Target: 0
    DamagePercentage: 0
    Element: 7
    DamageType: 0
    TargetFormationType: 1
    NormalSkillParticle: 
    BuffsChance:
    - Chance: 0
      BuffEffect:
        _ID: 3
        _MetaId: 3
        Name: Paralyze
        Type: 6
        EventType: 2
        Description: 
        Turns: 2
        value: 50
        BuffPrimary: []
        BuffSecondary: []
        ActionsBuffEnum: 00000000
        StatusBuff: 10
        StatusType: 1
        Stackable: 0
        BuffInflictID: 0
  - IdSkill: NM-55
    Name: Moderate Paralyze
    Description: 50% chance to skip turn
    CommandValue: 74373486
    SkillType: 0
    BuffPercentage: 45
    Target: 0
    DamagePercentage: 0
    Element: 7
    DamageType: 0
    TargetFormationType: 1
    NormalSkillParticle: 
    BuffsChance:
    - Chance: 0
      BuffEffect:
        _ID: 3
        _MetaId: 3
        Name: Paralyze
        Type: 6
        EventType: 2
        Description: 
        Turns: 2
        value: 50
        BuffPrimary: []
        BuffSecondary: []
        ActionsBuffEnum: 00000000
        StatusBuff: 10
        StatusType: 1
        Stackable: 0
        BuffInflictID: 0
  - IdSkill: NM-56
    Name: Major Paralyze
    Description: 50% chance to skip turn
    CommandValue: 74373487
    SkillType: 0
    BuffPercentage: 45
    Target: 0
    DamagePercentage: 0
    Element: 7
    DamageType: 0
    TargetFormationType: 1
    NormalSkillParticle: 
    BuffsChance:
    - Chance: 0
      BuffEffect:
        _ID: 3
        _MetaId: 3
        Name: Paralyze
        Type: 6
        EventType: 2
        Description: 
        Turns: 2
        value: 50
        BuffPrimary: []
        BuffSecondary: []
        ActionsBuffEnum: 00000000
        StatusBuff: 10
        StatusType: 1
        Stackable: 0
        BuffInflictID: 0
  _DatabaseID: Normal Skill
