%YAML 1.1
%TAG !u! tag:unity3d.com,2011:
--- !u!114 &11400000
MonoBehaviour:
  m_ObjectHideFlags: 0
  m_PrefabParentObject: {fileID: 0}
  m_PrefabInternal: {fileID: 0}
  m_GameObject: {fileID: 0}
  m_Enabled: 1
  m_EditorHideFlags: 0
  m_Script: {fileID: 11500000, guid: 44053b300c1d2774b80ac9d77f17adad, type: 3}
  m_Name: BattleSpriteDatabase
  m_EditorClassIdentifier: 
  database:
  - ID: 
    sprite: {fileID: 0}
  _DatabaseID: 
