%YAML 1.1
%TAG !u! tag:unity3d.com,2011:
--- !u!114 &11400000
MonoBehaviour:
  m_ObjectHideFlags: 0
  m_PrefabParentObject: {fileID: 0}
  m_PrefabInternal: {fileID: 0}
  m_GameObject: {fileID: 0}
  m_Enabled: 1
  m_EditorHideFlags: 0
  m_Script: {fileID: 11500000, guid: ae8b7a9e77d83db45b3a9049a338f200, type: 3}
  m_Name: InventoryDatabase
  m_EditorClassIdentifier: 
  database:
  - NewGameCash: 0
    item: []
  _DatabaseID: Inventory
