%YAML 1.1
%TAG !u! tag:unity3d.com,2011:
--- !u!114 &11400000
MonoBehaviour:
  m_ObjectHideFlags: 0
  m_PrefabParentObject: {fileID: 0}
  m_PrefabInternal: {fileID: 0}
  m_GameObject: {fileID: 0}
  m_Enabled: 1
  m_EditorHideFlags: 0
  m_Script: {fileID: 11500000, guid: 2f0c83a01792af847948ada87a0523d9, type: 3}
  m_Name: KeyCodeDatabase
  m_EditorClassIdentifier: 
  database:
  - KeyCode: 141
    AxisCode: 
    KeyName: A
  - KeyCode: 142
    AxisCode: 
    KeyName: B
  - KeyCode: 143
    AxisCode: 
    KeyName: X
  - KeyCode: 144
    AxisCode: 
    KeyName: Y
  - KeyCode: 145
    AxisCode: 
    KeyName: LB
  - KeyCode: 146
    AxisCode: 
    KeyName: RB
  - KeyCode: 147
    AxisCode: 
    KeyName: Back
  - KeyCode: 148
    AxisCode: 
    KeyName: Start
  - KeyCode: 0
    AxisCode: Axis 6 +
    KeyName: Up
  - KeyCode: 0
    AxisCode: Axis 6 -
    KeyName: Down
  - KeyCode: 0
    AxisCode: Axis 5 +
    KeyName: Right
  - KeyCode: 0
    AxisCode: Axis 5 -
    KeyName: Left
  - KeyCode: 0
    AxisCode: Axis 1 +
    KeyName: LStick Up
  - KeyCode: 0
    AxisCode: Axis 1 -
    KeyName: LStick Down
  - KeyCode: 0
    AxisCode: Axis 0 +
    KeyName: LStick Right
  - KeyCode: 0
    AxisCode: Axis 0 -
    KeyName: LStick Left
  - KeyCode: 0
    AxisCode: Axis 4 +
    KeyName: RStick Up
  - KeyCode: 0
    AxisCode: Axis 4 -
    KeyName: RStick Down
  - KeyCode: 0
    AxisCode: Axis 3 +
    KeyName: RStick Right
  - KeyCode: 0
    AxisCode: Axis 3 -
    KeyName: RStick Left
  - KeyCode: 0
    AxisCode: Axis 8 +
    KeyName: LT
  - KeyCode: 0
    AxisCode: Axis 9 +
    KeyName: RT
  - KeyCode: 4
    AxisCode: 
    KeyName: Enter
  - KeyCode: 8
    AxisCode: 
    KeyName: '!'
  - KeyCode: 9
    AxisCode: 
    KeyName: '"'
  - KeyCode: 11
    AxisCode: 
    KeyName: $
  - KeyCode: 13
    AxisCode: 
    KeyName: ''''
  - KeyCode: 14
    AxisCode: 
    KeyName: '['
  - KeyCode: 15
    AxisCode: 
    KeyName: ']'
  - KeyCode: 16
    AxisCode: 
    KeyName: '`'
  - KeyCode: 17
    AxisCode: 
    KeyName: +
  - KeyCode: 18
    AxisCode: 
    KeyName: ','
  - KeyCode: 19
    AxisCode: 
    KeyName: '-'
  - KeyCode: 21
    AxisCode: 
    KeyName: /
  - KeyCode: 22
    AxisCode: 
    KeyName: 0
  - KeyCode: 23
    AxisCode: 
    KeyName: 1
  - KeyCode: 24
    AxisCode: 
    KeyName: 2
  - KeyCode: 25
    AxisCode: 
    KeyName: 3
  - KeyCode: 26
    AxisCode: 
    KeyName: 4
  - KeyCode: 27
    AxisCode: 
    KeyName: 5
  - KeyCode: 28
    AxisCode: 
    KeyName: 6
  - KeyCode: 29
    AxisCode: 
    KeyName: 7
  - KeyCode: 30
    AxisCode: 
    KeyName: 8
  - KeyCode: 31
    AxisCode: 
    KeyName: 9
  - KeyCode: 33
    AxisCode: 
    KeyName: ;
  - KeyCode: 35
    AxisCode: 
    KeyName: =
  - KeyCode: 40
    AxisCode: 
    KeyName: \
  - KeyCode: 43
    AxisCode: 
    KeyName: _
  - KeyCode: 44
    AxisCode: 
    KeyName: '`'
  - KeyCode: 72
    AxisCode: 
    KeyName: Keypad 0
  - KeyCode: 73
    AxisCode: 
    KeyName: Keypad 1
  - KeyCode: 74
    AxisCode: 
    KeyName: Keypad 2
  - KeyCode: 75
    AxisCode: 
    KeyName: Keypad 3
  - KeyCode: 76
    AxisCode: 
    KeyName: Keypad 4
  - KeyCode: 77
    AxisCode: 
    KeyName: Keypad 5
  - KeyCode: 78
    AxisCode: 
    KeyName: Keypad 6
  - KeyCode: 79
    AxisCode: 
    KeyName: Keypad 7
  - KeyCode: 80
    AxisCode: 
    KeyName: Keypad 8
  - KeyCode: 81
    AxisCode: 
    KeyName: Keypad 9
  - KeyCode: 82
    AxisCode: 
    KeyName: Keypad .
  - KeyCode: 83
    AxisCode: 
    KeyName: Keypad /
  - KeyCode: 84
    AxisCode: 
    KeyName: Keypad *
  - KeyCode: 85
    AxisCode: 
    KeyName: Keypad -
  - KeyCode: 86
    AxisCode: 
    KeyName: Keypad +
  - KeyCode: 87
    AxisCode: 
    KeyName: Keypad Enter
  - KeyCode: 88
    AxisCode: 
    KeyName: Keypad =
  - KeyCode: 89
    AxisCode: 
    KeyName: Up
  - KeyCode: 90
    AxisCode: 
    KeyName: Down
  - KeyCode: 92
    AxisCode: 
    KeyName: Left
  - KeyCode: 91
    AxisCode: 
    KeyName: Right
  - KeyCode: 96
    AxisCode: 
    KeyName: Page Up
  - KeyCode: 97
    AxisCode: 
    KeyName: Page Down
  - KeyCode: 116
    AxisCode: 
    KeyName: RShift
  - KeyCode: 117
    AxisCode: 
    KeyName: LShift
  - KeyCode: 118
    AxisCode: 
    KeyName: RCtrl
  - KeyCode: 119
    AxisCode: 
    KeyName: LCtrl
  - KeyCode: 120
    AxisCode: 
    KeyName: RAlt
  - KeyCode: 121
    AxisCode: 
    KeyName: LAlt
  - KeyCode: 123
    AxisCode: 
    KeyName: RCmd
  - KeyCode: 124
    AxisCode: 
    KeyName: LCmd
  - KeyCode: 122
    AxisCode: 
    KeyName: RApple
  - KeyCode: 125
    AxisCode: 
    KeyName: LApple
  - KeyCode: 126
    AxisCode: 
    KeyName: LWindows
  - KeyCode: 127
    AxisCode: 
    KeyName: RWindows
  - KeyCode: 134
    AxisCode: 
    KeyName: Left Click
  - KeyCode: 135
    AxisCode: 
    KeyName: Right Click
  - KeyCode: 136
    AxisCode: 
    KeyName: Middle Click
  - KeyCode: 137
    AxisCode: 
    KeyName: Mouse Btn 3
  - KeyCode: 138
    AxisCode: 
    KeyName: Mouse Btn 4
  - KeyCode: 139
    AxisCode: 
    KeyName: Mouse Btn 5
  - KeyCode: 140
    AxisCode: 
    KeyName: Mouse Btn 6
  _DatabaseID: KeyCodeTranslate
