%YAML 1.1
%TAG !u! tag:unity3d.com,2011:
--- !u!114 &11400000
MonoBehaviour:
  m_ObjectHideFlags: 0
  m_PrefabParentObject: {fileID: 0}
  m_PrefabInternal: {fileID: 0}
  m_GameObject: {fileID: 0}
  m_Enabled: 1
  m_EditorHideFlags: 0
  m_Script: {fileID: 11500000, guid: 44053b300c1d2774b80ac9d77f17adad, type: 3}
  m_Name: UISpriteDatabase
  m_EditorClassIdentifier: 
  database:
  - ID: ACTION_SKIP
    sprite: {fileID: 21300046, guid: 1005e21d3d6e9604aaad5e7f973db63c, type: 3}
  - ID: AGI-
    sprite: {fileID: 21300006, guid: 1005e21d3d6e9604aaad5e7f973db63c, type: 3}
  - ID: AGI+
    sprite: {fileID: 21300004, guid: 1005e21d3d6e9604aaad5e7f973db63c, type: 3}
  - ID: BlankKey
    sprite: {fileID: 21300000, guid: 6a7d58b67f6970241883e1afaabb3347, type: 3}
  - ID: ControllerJoystickButton0
    sprite: {fileID: 21300006, guid: f066ab6aa5fc2c54b98203601bd6e88a, type: 3}
  - ID: ControllerJoystickButton1
    sprite: {fileID: 21300004, guid: f066ab6aa5fc2c54b98203601bd6e88a, type: 3}
  - ID: ControllerJoystickButton2
    sprite: {fileID: 21300000, guid: f066ab6aa5fc2c54b98203601bd6e88a, type: 3}
  - ID: ControllerJoystickButton3
    sprite: {fileID: 21300002, guid: f066ab6aa5fc2c54b98203601bd6e88a, type: 3}
  - ID: ControllerJoystickButton4
    sprite: {fileID: 21300030, guid: f066ab6aa5fc2c54b98203601bd6e88a, type: 3}
  - ID: ControllerJoystickButton5
    sprite: {fileID: 21300032, guid: f066ab6aa5fc2c54b98203601bd6e88a, type: 3}
  - ID: ControllerJoystickButton6
    sprite: {fileID: 21300026, guid: f066ab6aa5fc2c54b98203601bd6e88a, type: 3}
  - ID: ControllerJoystickButton7
    sprite: {fileID: 21300028, guid: f066ab6aa5fc2c54b98203601bd6e88a, type: 3}
  - ID: ControllerJoystickButton8
    sprite: {fileID: 21300018, guid: f066ab6aa5fc2c54b98203601bd6e88a, type: 3}
  - ID: ControllerJoystickButton9
    sprite: {fileID: 21300020, guid: f066ab6aa5fc2c54b98203601bd6e88a, type: 3}
  - ID: CriticalDamage-
    sprite: {fileID: 21300028, guid: 1005e21d3d6e9604aaad5e7f973db63c, type: 3}
  - ID: CriticalDamage+
    sprite: {fileID: 21300042, guid: 1005e21d3d6e9604aaad5e7f973db63c, type: 3}
  - ID: CriticalRate-
    sprite: {fileID: 21300034, guid: 1005e21d3d6e9604aaad5e7f973db63c, type: 3}
  - ID: CriticalRate+
    sprite: {fileID: 21300032, guid: 1005e21d3d6e9604aaad5e7f973db63c, type: 3}
  - ID: ElementAir
    sprite: {fileID: 21300078, guid: 1005e21d3d6e9604aaad5e7f973db63c, type: 3}
  - ID: ElementDark
    sprite: {fileID: 21300084, guid: 1005e21d3d6e9604aaad5e7f973db63c, type: 3}
  - ID: ElementEarth
    sprite: {fileID: 21300080, guid: 1005e21d3d6e9604aaad5e7f973db63c, type: 3}
  - ID: ElementFire
    sprite: {fileID: 21300074, guid: 1005e21d3d6e9604aaad5e7f973db63c, type: 3}
  - ID: ElementLight
    sprite: {fileID: 21300086, guid: 1005e21d3d6e9604aaad5e7f973db63c, type: 3}
  - ID: ElementLighting
    sprite: {fileID: 21300082, guid: 1005e21d3d6e9604aaad5e7f973db63c, type: 3}
  - ID: ElementWater
    sprite: {fileID: 21300076, guid: 1005e21d3d6e9604aaad5e7f973db63c, type: 3}
  - ID: EvasionRate-
    sprite: {fileID: 21300090, guid: 1005e21d3d6e9604aaad5e7f973db63c, type: 3}
  - ID: EvasionRate+
    sprite: {fileID: 21300088, guid: 1005e21d3d6e9604aaad5e7f973db63c, type: 3}
  - ID: Fear
    sprite: {fileID: 21300038, guid: 1005e21d3d6e9604aaad5e7f973db63c, type: 3}
  - ID: HitRate-
    sprite: {fileID: 21300028, guid: 1005e21d3d6e9604aaad5e7f973db63c, type: 3}
  - ID: HitRate+
    sprite: {fileID: 21300028, guid: 1005e21d3d6e9604aaad5e7f973db63c, type: 3}
  - ID: INT-
    sprite: {fileID: 21300016, guid: 1005e21d3d6e9604aaad5e7f973db63c, type: 3}
  - ID: INT+
    sprite: {fileID: 21300012, guid: 1005e21d3d6e9604aaad5e7f973db63c, type: 3}
  - ID: INVINCIBLE
    sprite: {fileID: 0}
  - ID: LeftMouse
    sprite: {fileID: 21300000, guid: 34bb4f6719fc90d4d9545537199c9cac, type: 3}
  - ID: LUCK-
    sprite: {fileID: 21300010, guid: 1005e21d3d6e9604aaad5e7f973db63c, type: 3}
  - ID: LUCK+
    sprite: {fileID: 21300008, guid: 1005e21d3d6e9604aaad5e7f973db63c, type: 3}
  - ID: NEGATEDAttack
    sprite: {fileID: 21300038, guid: 1005e21d3d6e9604aaad5e7f973db63c, type: 3}
  - ID: NEGATEDMagic
    sprite: {fileID: 21300040, guid: 1005e21d3d6e9604aaad5e7f973db63c, type: 3}
  - ID: PionAria
    sprite: {fileID: 21300034, guid: 321811d97487c854b86e89ffc705725c, type: 3}
  - ID: PionFinn
    sprite: {fileID: 21300090, guid: 321811d97487c854b86e89ffc705725c, type: 3}
  - ID: PionGeddo
    sprite: {fileID: 21300064, guid: 321811d97487c854b86e89ffc705725c, type: 3}
  - ID: PionEris
    sprite: {fileID: 21300032, guid: 321811d97487c854b86e89ffc705725c, type: 3}
  - ID: PionKael
    sprite: {fileID: 21300074, guid: 321811d97487c854b86e89ffc705725c, type: 3}
  - ID: PionScatia
    sprite: {fileID: 21300072, guid: 321811d97487c854b86e89ffc705725c, type: 3}
  - ID: PionAzzam
    sprite: {fileID: 21300092, guid: 321811d97487c854b86e89ffc705725c, type: 3}
  - ID: Poison
    sprite: {fileID: 21300020, guid: 1005e21d3d6e9604aaad5e7f973db63c, type: 3}
  - ID: PortraitAria
    sprite: {fileID: 21300000, guid: bb09596603671144a93851e77c476d2b, type: 3}
  - ID: PortraitFinn0
    sprite: {fileID: 21300000, guid: eeaeb6c701a440047b675d93319f2478, type: 3}
  - ID: PortraitFinn1
    sprite: {fileID: 21300000, guid: a1589c160a9fbc14cafc6781fe2fec98, type: 3}
  - ID: PortraitGeddo
    sprite: {fileID: 21300000, guid: d3db9bcfd9ff6ed46853131d3508564a, type: 3}
  - ID: PortraitEris
    sprite: {fileID: 21300000, guid: a2d0a48e3b0a5de4ab7f456de9f63417, type: 3}
  - ID: PortraitKael
    sprite: {fileID: 21300000, guid: d040f3cc8bfd907429f4df4a3cb4c189, type: 3}
  - ID: PortraitScatia
    sprite: {fileID: 21300000, guid: b158a78fbb1736142abf2ac12576e3c8, type: 3}
  - ID: PortraitAzzam
    sprite: {fileID: 21300000, guid: 8244ec7ad2c998845a387c1ede36b6a5, type: 3}
  - ID: RANDOM_TARGET
    sprite: {fileID: 21300036, guid: 1005e21d3d6e9604aaad5e7f973db63c, type: 3}
  - ID: REFLECT
    sprite: {fileID: 21300024, guid: 1005e21d3d6e9604aaad5e7f973db63c, type: 3}
  - ID: Regen
    sprite: {fileID: 21300022, guid: 1005e21d3d6e9604aaad5e7f973db63c, type: 3}
  - ID: RightMouse
    sprite: {fileID: 21300000, guid: d9a45cb8e922a1542b69ee4395f898c4, type: 3}
  - ID: Silence
    sprite: {fileID: 21300040, guid: 1005e21d3d6e9604aaad5e7f973db63c, type: 3}
  - ID: STR-
    sprite: {fileID: 21300002, guid: 1005e21d3d6e9604aaad5e7f973db63c, type: 3}
  - ID: STR+
    sprite: {fileID: 21300000, guid: 1005e21d3d6e9604aaad5e7f973db63c, type: 3}
  - ID: Tel_Harran_Sigil
    sprite: {fileID: 21300000, guid: b628d1ccf4ce5bb4a92288942d3dfe79, type: 3}
  - ID: VAMPIRE
    sprite: {fileID: 21300024, guid: 1005e21d3d6e9604aaad5e7f973db63c, type: 3}
  - ID: VIT-
    sprite: {fileID: 21300018, guid: 1005e21d3d6e9604aaad5e7f973db63c, type: 3}
  - ID: VIT+
    sprite: {fileID: 21300016, guid: 1005e21d3d6e9604aaad5e7f973db63c, type: 3}
  - ID: WeaponImpact
    sprite: {fileID: 21300068, guid: 1005e21d3d6e9604aaad5e7f973db63c, type: 3}
  - ID: WeaponPierce
    sprite: {fileID: 21300072, guid: 1005e21d3d6e9604aaad5e7f973db63c, type: 3}
  - ID: WeaponSlash
    sprite: {fileID: 21300070, guid: 1005e21d3d6e9604aaad5e7f973db63c, type: 3}
  - ID: IconBlackSmith
    sprite: {fileID: 21300000, guid: f44ea7ed0f40fea40b9019bf3fa0a1ee, type: 3}
  - ID: IconVendor
    sprite: {fileID: 21300000, guid: 57acd547e39950c4d99c1112bbb26161, type: 3}
  - ID: IconAlchemist
    sprite: {fileID: 21300000, guid: 127e93a204d8136428c9af549445cba0, type: 3}
  - ID: QuestSQ-0101
    sprite: {fileID: 21300000, guid: 27e8705365cd11545ab976d8c11f462d, type: 3}
  - ID: QuestSQ-0102
    sprite: {fileID: 21300000, guid: bc8867eb2f73d37468006564a4d39de0, type: 3}
  - ID: SkillBuff
    sprite: {fileID: 21300000, guid: 94b6d69bff740f347998669a12f0e2a2, type: 3}
  - ID: SkillDebuff
    sprite: {fileID: 21300000, guid: 1f491649a92f58f4082023bedddb2b39, type: 3}
  - ID: SkillHeal
    sprite: {fileID: 21300000, guid: cc444f28a6cd24c4fa60f035ca979c28, type: 3}
  - ID: AvatarFinn
    sprite: {fileID: 21300000, guid: 6687ae29e31bdcb4b9e69123401db541, type: 3}
  - ID: AvatarAria
    sprite: {fileID: 21300000, guid: 861dc199b5689b3449442f15deaffcd9, type: 3}
  - ID: AvatarGeddo
    sprite: {fileID: 21300000, guid: 4e4ce6059ec4bef41ba04d5afb7b8cd2, type: 3}
  - ID: AvatarEris
    sprite: {fileID: 21300000, guid: a34a3f2829e8ae7438a5bacc7ca21e0a, type: 3}
  - ID: AvatarScatia
    sprite: {fileID: 21300000, guid: b158a78fbb1736142abf2ac12576e3c8, type: 3}
  - ID: AvatarKael
    sprite: {fileID: 21300000, guid: 24dccbca49c2f5245a658a9b4ef69022, type: 3}
  - ID: AvatarAzzam
    sprite: {fileID: 21300000, guid: 8244ec7ad2c998845a387c1ede36b6a5, type: 3}
  - ID: AvatarWarFinn
    sprite: {fileID: 21300000, guid: 6687ae29e31bdcb4b9e69123401db541, type: 3}
  - ID: AvatarWarAria
    sprite: {fileID: 21300000, guid: 861dc199b5689b3449442f15deaffcd9, type: 3}
  - ID: Grimoire
    sprite: {fileID: 21300000, guid: 528943b67f02082458361d88824100b7, type: 3}
  - ID: Tel Harran
    sprite: {fileID: 21300000, guid: 036e4b4c4244b08409c7fb36916d48cb, type: 3}
  - ID: Rahas Desert
    sprite: {fileID: 21300000, guid: a1ffeabe2ec1ab1409ee1dc1d72c5df2, type: 3}
  - ID: Dunabad
    sprite: {fileID: 21300000, guid: 95b520d85660e0d4eb56f60db7646c4f, type: 3}
  - ID: Shapur
    sprite: {fileID: 21300000, guid: ccbefaddefbbcbd409fbb63bc002d0d3, type: 3}
  - ID: Dunabad Cave
    sprite: {fileID: 21300000, guid: 9982174ea8d417e42813e5f52ad60631, type: 3}
  - ID: AGIfont
    sprite: {fileID: 21300000, guid: 3838fa8902e49444cbd7fdee6e1d9e00, type: 3}
  - ID: STRfont
    sprite: {fileID: 21300000, guid: 14d5298afd72cf140a3029514ba4e72b, type: 3}
  - ID: INTfont
    sprite: {fileID: 21300000, guid: 0ed363d6045a38e48b007358e783fbe9, type: 3}
  - ID: LUCKfont
    sprite: {fileID: 21300000, guid: 71507ac134b6b104b81434fb758d63f5, type: 3}
  - ID: EVAfont
    sprite: {fileID: 21300000, guid: 6de0dc9322934084594217944d63c466, type: 3}
  - ID: VITfont
    sprite: {fileID: 21300000, guid: a0d4e8c53ec9834409c0d2d7d809a53d, type: 3}
  - ID: BLINDfont
    sprite: {fileID: 21300000, guid: 0652b425c025adb439d67094a133281a, type: 3}
  - ID: BURNfont
    sprite: {fileID: 21300000, guid: bc03a88bbab29ba4184ee998a0d12d70, type: 3}
  - ID: RANDOM_TARGETfont
    sprite: {fileID: 21300000, guid: 7ac5d68898d48c94a97fe033516eaf44, type: 3}
  - ID: HitRatefont
    sprite: {fileID: 21300000, guid: db88c45a01432504692d2ad6fe4c33bf, type: 3}
  - ID: CriticalDamagefont
    sprite: {fileID: 21300000, guid: da96089a5a585824a9d599983cdf14d4, type: 3}
  - ID: CriticalRatefont
    sprite: {fileID: 21300000, guid: da96089a5a585824a9d599983cdf14d4, type: 3}
  - ID: VAMPIREfont
    sprite: {fileID: 21300000, guid: 38b2e65b439f88942b3af999e4e92356, type: 3}
  - ID: NEGATEDAttackfont
    sprite: {fileID: 21300000, guid: 42ef5760fd526714083e2a48488621e6, type: 3}
  - ID: FOCUSfont
    sprite: {fileID: 21300000, guid: 86ec9c6f693284c4f9b0a7e616ad04b1, type: 3}
  - ID: ACTION_SKIPfont
    sprite: {fileID: 21300000, guid: 356925f795e8e4f4b89e5d8b8c78bbdf, type: 3}
  - ID: Poisonfont
    sprite: {fileID: 21300000, guid: a0a04c1c5b1b94f42ae7c450d6f1fad2, type: 3}
  - ID: REFLECTfont
    sprite: {fileID: 21300000, guid: 0b22ff18e5f41e745a105fb2789930e4, type: 3}
  - ID: Regenfont
    sprite: {fileID: 21300000, guid: a5aad3d8e91a5c44d9691a428386b042, type: 3}
  - ID: NEGATEDMagicfont
    sprite: {fileID: 21300000, guid: 4eb48b6a7ffb3b3479dbc7e85d5ee142, type: 3}
  _DatabaseID: Sprite
